%YAML 1.1
%TAG !u! tag:unity3d.com,2011:
--- !u!21 &2100000
Material:
  serializedVersion: 6
  m_ObjectHideFlags: 0
  m_CorrespondingSourceObject: {fileID: 0}
  m_PrefabInstance: {fileID: 0}
  m_PrefabAsset: {fileID: 0}
  m_Name: HG_Adv_07
  m_Shader: {fileID: 4800000, guid: 79aed62ebf633114bb3e8df1cea2425f, type: 3}
  m_ShaderKeywords: _DIST_CHROM_ON _EMISSION _GLITCHCOLOR_ON _ORIGINALUVSWITCH_ON
    _X_ON _Y_ON
  m_LightmapFlags: 1
  m_EnableInstancingVariants: 0
  m_DoubleSidedGI: 0
  m_CustomRenderQueue: -1
  stringTagMap: {}
  disabledShaderPasses: []
  m_SavedProperties:
    serializedVersion: 3
    m_TexEnvs:
    - _BumpMap:
        m_Texture: {fileID: 0}
        m_Scale: {x: 1, y: 1}
        m_Offset: {x: 0, y: 0}
    - _DetailAlbedoMap:
        m_Texture: {fileID: 0}
        m_Scale: {x: 1, y: 1}
        m_Offset: {x: 0, y: 0}
    - _DetailMask:
        m_Texture: {fileID: 0}
        m_Scale: {x: 1, y: 1}
        m_Offset: {x: 0, y: 0}
    - _DetailNormalMap:
        m_Texture: {fileID: 0}
        m_Scale: {x: 1, y: 1}
        m_Offset: {x: 0, y: 0}
    - _Diffuse:
        m_Texture: {fileID: 2800000, guid: 070849e3f8bd6b4488163d83f23ffcc8, type: 3}
        m_Scale: {x: 1, y: 1}
        m_Offset: {x: 0, y: 0}
    - _EmissionMap:
        m_Texture: {fileID: 0}
        m_Scale: {x: 1, y: 1}
        m_Offset: {x: 0, y: 0}
    - _M_map:
        m_Texture: {fileID: 2800000, guid: f5b272b22cf8f434689ef61dc4661e94, type: 3}
        m_Scale: {x: 1, y: 1}
        m_Offset: {x: 1, y: 1}
    - _MainTex:
        m_Texture: {fileID: 2800000, guid: ffa9c02760c2b4e8eb9814ec06c4b05b, type: 3}
        m_Scale: {x: 1, y: 1}
        m_Offset: {x: 0, y: 0}
    - _MetallicGlossMap:
        m_Texture: {fileID: 0}
        m_Scale: {x: 1, y: 1}
        m_Offset: {x: 0, y: 0}
    - _N_map:
        m_Texture: {fileID: 2800000, guid: 7a632f967e8ad42f5bd275898151ab6a, type: 3}
        m_Scale: {x: 3, y: 3}
        m_Offset: {x: 0, y: 0}
    - _OcclusionMap:
        m_Texture: {fileID: 0}
        m_Scale: {x: 1, y: 1}
        m_Offset: {x: 0, y: 0}
    - _ParallaxMap:
        m_Texture: {fileID: 0}
        m_Scale: {x: 1, y: 1}
        m_Offset: {x: 0, y: 0}
    - _originalDiffuse:
        m_Texture: {fileID: 0}
        m_Scale: {x: 1, y: 1}
        m_Offset: {x: 0, y: 0}
    m_Floats:
    - Zoom: 10.89
    - _Amount: 1
    - _Amplitude: 100
    - _Bias: 0.125
    - _BumpScale: 1
    - _Circle_wave: 22.5
    - _Cutoff: 0.5
    - _DetailNormalMapScale: 1
    - _Distance: 2
    - _DstBlend: 0
    - _GlossMapScale: 1
    - _Glossiness: 0.5
    - _GlossyReflections: 1
    - _Metallic: 0
    - _Mode: 0
    - _OcclusionStrength: 1
    - _Opacity: 1
    - _Opacity_gl: 1
    - _OriginalUVSwitch: 1
    - _OrigineX: 0.5
    - _OrigineY: 1
    - _Parallax: 0.02
    - _Power: 2
    - _Rotation: 0
    - _Scale: 5
    - _SmoothnessTextureChannel: 0
    - _SpecularHighlights: 1
    - _Speed: 0.19
    - _Speed_Up: 10
    - _Speed_face: 10
    - _Speed_wave: 200
    - _SrcBlend: 1
    - _UVSec: 0
    - _X: 1
    - _Y: 1
    - _ZWrite: 1
    - _Zoom: 1
    - _a: 12.5
    - _cut_level: 0.45
    - _deform: 1.2
    - _dist_chrom: 1
    - _glitchColor: 1
    - _grey: 1
    - _intensity: 10
    - _mask_type: 0
    - _monochrom: 0
    - _noise_details: 5.5
    - _t: 1
    m_Colors:
    - _Color: {r: 1, g: 1, b: 1, a: 1}
    - _Color_diff: {r: 0.25, g: 0, b: 0, a: 1}
    - _EmissionColor: {r: 0, g: 0, b: 0, a: 1}
    - _diff_Color: {r: 1, g: 1, b: 1, a: 1}
    - _glitchColor_c: {r: 0.4068966, g: 1, b: 0, a: 1}
